<?xml version="1.0" encoding="utf-8"?>
<!-- Generator: Adobe Illustrator 23.0.3, SVG Export Plug-In . SVG Version: 6.00 Build 0)  -->
<svg version="1.1" id="Layer_1" xmlns="http://www.w3.org/2000/svg" xmlns:xlink="http://www.w3.org/1999/xlink" x="0px" y="0px"
	 viewBox="0 0 124.8 37.1" style="enable-background:new 0 0 124.8 37.1;" xml:space="preserve">
<style type="text/css">
	.st0{fill:#253858;}
	.st1{fill-rule:evenodd;clip-rule:evenodd;fill:url(#SVGID_1_);}
	.st2{fill-rule:evenodd;clip-rule:evenodd;fill:#2684FF;}
</style>
<g>
	<path class="st0" d="M66.3,2.1v27h-3.7V17.4H48.3v11.7h-3.7v-27h3.7v11.8h14.3V2.1L66.3,2.1z"/>
	<path class="st0" d="M86.3,25.4c-1.3,2.7-3.8,4.1-7,4.1c-5.5,0-8.3-4.6-8.3-10.7c0-5.8,2.9-10.7,8.7-10.7c3,0,5.3,1.4,6.6,4V8.6
		h3.6v20.5h-3.6L86.3,25.4z M80.3,26.2c3.2,0,6-2,6-6.6V18c0-4.6-2.6-6.6-5.6-6.6c-4,0-6.1,2.6-6.1,7.4
		C74.6,23.8,76.6,26.2,80.3,26.2z"/>
	<path class="st0" d="M100.8,29.2c-3.4,0-5.5-1.6-5.5-5.4V0h3.6v23.4c0,1.9,1.2,2.5,2.8,2.5c0.3,0,0.7,0,1,0v3.2
		C102,29.2,101.4,29.3,100.8,29.2z"/>
	<path class="st0" d="M109.6,25.5v11.6H106V8.6h3.6v3.7c1.3-2.7,3.8-4.1,7-4.1c5.5,0,8.3,4.7,8.3,10.7c0,5.8-2.9,10.7-8.7,10.7
		C113.1,29.5,110.8,28.2,109.6,25.5z M115.6,11.5c-3.2,0-6,2-6,6.6v1.6c0,4.6,2.6,6.6,5.6,6.6c4,0,6.1-2.6,6.1-7.4
		C121.3,13.9,119.3,11.5,115.6,11.5z"/>
</g>
<radialGradient id="SVGID_1_" cx="-406.2325" cy="486.2942" r="1" gradientTransform="matrix(15.0365 0 0 -14.9333 6123.3506 7277.5635)" gradientUnits="userSpaceOnUse">
	<stop  offset="0.43" style="stop-color:#0052CC"/>
	<stop  offset="0.84" style="stop-color:#1B75F0"/>
	<stop  offset="1" style="stop-color:#2684FF"/>
</radialGradient>
<path class="st1" d="M25.7,5c2.1,2.1,3.5,4.7,4.1,7.6s0.3,5.9-0.9,8.6c-1.1,2.7-3.1,5.1-5.5,6.7c-2.5,1.6-5.4,2.5-8.4,2.5
	c-3,0-5.9-0.9-8.4-2.5c-2.5-1.6-4.4-4-5.5-6.7c-1.1-2.7-1.4-5.7-0.9-8.6c0.6-2.9,2-5.6,4.1-7.6c1.4-1.4,3.1-2.5,4.9-3.2
	s3.8-1.1,5.8-1.1c2,0,3.9,0.4,5.8,1.1S24.3,3.6,25.7,5z M6.9,23.6L6.9,23.6L6.9,23.6L6.9,23.6z M19.1,9.3l2.8-2.8
	c-2-1.5-4.4-2.3-6.9-2.3S10.1,5,8.2,6.5L11,9.3l-2.3,2.3L5.8,8.8c-1.5,2-2.3,4.4-2.3,6.8c0,2.5,0.8,4.8,2.3,6.8l2.8-2.8l2.3,2.3
	l-2.8,2.8c2,1.5,4.4,2.3,6.9,2.3s4.9-0.8,6.9-2.3l-2.8-2.8l2.3-2.3l2.8,2.8c1.5-2,2.3-4.4,2.3-6.8c0-2.5-0.8-4.8-2.3-6.8l-2.8,2.8
	L19.1,9.3z"/>
<path class="st2" d="M15,8.1c-1.5,0-2.9,0.4-4.2,1.3c-1.2,0.8-2.2,2-2.8,3.4c-0.6,1.4-0.7,2.9-0.4,4.3s1,2.8,2.1,3.8
	c1.1,1,2.4,1.8,3.8,2s3,0.1,4.3-0.4s2.5-1.5,3.4-2.8c0.8-1.2,1.3-2.7,1.3-4.1c0-2-0.8-3.9-2.2-5.3C18.9,8.9,17,8.1,15,8.1z M15,19.8
	c-0.8,0-1.7-0.2-2.3-0.7c-0.7-0.5-1.2-1.1-1.6-1.9c-0.3-0.8-0.4-1.6-0.2-2.4c0.2-0.8,0.6-1.6,1.2-2.2c0.6-0.6,1.3-1,2.2-1.1
	c0.8-0.2,1.7-0.1,2.4,0.2c0.8,0.3,1.4,0.9,1.9,1.5s0.7,1.5,0.7,2.3c0,0.6-0.1,1.1-0.3,1.6c-0.2,0.5-0.5,1-0.9,1.4
	c-0.4,0.4-0.9,0.7-1.4,0.9S15.6,19.8,15,19.8L15,19.8z"/>
</svg>
